module slave

go 1.19

require github.com/myzhan/boomer v1.6.1-0.20220901070232-1b0bf5111374

require (
	github.com/asaskevich/EventBus v0.0.0-20200907212545-49d423059eef // indirect
	github.com/beorn7/perks v1.0.1 // indirect
	github.com/cespare/xxhash/v2 v2.1.1 // indirect
	github.com/go-ole/go-ole v1.2.6 // indirect
	github.com/golang/protobuf v1.4.3 // indirect
	github.com/google/uuid v1.3.0 // indirect
	github.com/mattn/go-runewidth v0.0.13 // indirect
	github.com/matttproud/golang_protobuf_extensions v1.0.1 // indirect
	github.com/olekukonko/tablewriter v0.0.5 // indirect
	github.com/prometheus/client_golang v1.11.0 // indirect
	github.com/prometheus/client_model v0.2.0 // indirect
	github.com/prometheus/common v0.26.0 // indirect
	github.com/prometheus/procfs v0.6.0 // indirect
	github.com/rivo/uniseg v0.3.4 // indirect
	github.com/shirou/gopsutil v3.21.11+incompatible // indirect
	github.com/stretchr/testify v1.8.0 // indirect
	github.com/tklauser/go-sysconf v0.3.10 // indirect
	github.com/tklauser/numcpus v0.5.0 // indirect
	github.com/ugorji/go/codec v1.2.7 // indirect
	github.com/yusufpapurcu/wmi v1.2.2 // indirect
	github.com/zeromq/goczmq v4.1.0+incompatible // indirect
	github.com/zeromq/gomq v0.0.0-20201031135124-cef4e507bb8e // indirect
	github.com/zeromq/gomq/zmtp v0.0.0-20201031135124-cef4e507bb8e // indirect
	golang.org/x/sys v0.0.0-20220829200755-d48e67d00261 // indirect
	google.golang.org/protobuf v1.26.0-rc.1 // indirect
)
